…
\#\#\#\#Calculate rounded mean per
dimension

``` r
cs$ILMean <- cs %>% select(cIL, ILMiss)  %>% rowMeans(na.rm=TRUE) %>% round()
cs$RLMean <- cs %>% select(cRL, RLMiss)  %>% rowMeans(na.rm=TRUE) %>% round()
cs$MHMean <- cs %>% select(cMH)  %>% rowMeans(na.rm=TRUE) %>% round()
cs$COPMean <- cs %>% select(cCOP)  %>%  rowMeans(na.rm=TRUE) %>% round()
cs$PAINMean <- cs %>% select(cPAIN)  %>%rowMeans(na.rm=TRUE) %>% round()
cs$SENMean <- cs %>% select(cSEN)  %>%rowMeans(na.rm=TRUE) %>% round()

cs %>% select(contains("Mean")) %>% head(50)
```

    ## # A tibble: 36 x 6
    ##    ILMean RLMean MHMean COPMean PAINMean SENMean
    ##     <dbl>  <dbl>  <dbl>   <dbl>    <dbl>   <dbl>
    ##  1      2      2      3       3        1       2
    ##  2      2      2      4       3        4       2
    ##  3      2      2      2       2        1       1
    ##  4      1      2      4       4        2       2
    ##  5      3      3      5       5        3       3
    ##  6      1      1      3       2        2       1
    ##  7      3      2      4       4        3       3
    ##  8      4      3    NaN     NaN      NaN     NaN
    ##  9      3      2      3       4        4       2
    ## 10      4      3      2       4        4       2
    ## # … with 26 more rows
…
